<?xml version="1.0" encoding="UTF-8" standalone="no"?>
<!-- Created with Inkscape (http://www.inkscape.org/) -->

<svg
   xmlns:dc="http://purl.org/dc/elements/1.1/"
   xmlns:cc="http://creativecommons.org/ns#"
   xmlns:rdf="http://www.w3.org/1999/02/22-rdf-syntax-ns#"
   xmlns:svg="http://www.w3.org/2000/svg"
   xmlns="http://www.w3.org/2000/svg"
   xmlns:xlink="http://www.w3.org/1999/xlink"
   xmlns:sodipodi="http://sodipodi.sourceforge.net/DTD/sodipodi-0.dtd"
   xmlns:inkscape="http://www.inkscape.org/namespaces/inkscape"
   width="210mm"
   height="297mm"
   viewBox="0 0 210 297"
   version="1.1"
   id="svg8"
   inkscape:version="0.92.3 (2405546, 2018-03-11)"
   sodipodi:docname="drawing.svg">
  <defs
     id="defs2">
    <radialGradient
       r="117.14"
       gradientTransform="matrix(-2.7744,0,0,1.9697,112.76,-872.89)"
       cx="605.71"
       cy="486.65"
       gradientUnits="userSpaceOnUse"
       xlink:href="#linearGradient5060"
       id="radialGradient6719" />
    <linearGradient
       id="linearGradient5060">
      <stop
         offset="0"
         style="stop-color:#000000"
         id="stop5062" />
      <stop
         offset="1"
         style="stop-color:#000000;stop-opacity:0"
         id="stop5064" />
    </linearGradient>
    <radialGradient
       r="117.14"
       gradientTransform="matrix(2.7744,0,0,1.9697,-1891.6,-872.89)"
       cx="605.71"
       cy="486.65"
       gradientUnits="userSpaceOnUse"
       xlink:href="#linearGradient5060"
       id="radialGradient6717" />
    <linearGradient
       x1="302.86"
       y1="366.65"
       gradientTransform="matrix(2.7744,0,0,1.9697,-1892.2,-872.89)"
       x2="302.86"
       gradientUnits="userSpaceOnUse"
       y2="609.51"
       id="linearGradient6715">
      <stop
         offset="0"
         style="stop-color:#000000;stop-opacity:0"
         id="stop5050" />
      <stop
         offset=".5"
         style="stop-color:#000000"
         id="stop5056" />
      <stop
         offset="1"
         style="stop-color:#000000;stop-opacity:0"
         id="stop5052" />
    </linearGradient>
    <linearGradient
       x1="30.062"
       y1="13.445"
       gradientTransform="matrix(0.7377,0,0,0.7377,6.6371,13.546)"
       x2="17.696"
       gradientUnits="userSpaceOnUse"
       y2="12.334"
       id="linearGradient2269">
      <stop
         offset="0"
         style="stop-color:#fbf0e0"
         id="stop4981" />
      <stop
         offset="1"
         style="stop-color:#f0ce99"
         id="stop4983" />
    </linearGradient>
    <linearGradient
       x1="36.289"
       y1="14.662"
       gradientTransform="matrix(0.7377,0,0,0.7377,6.6371,13.546)"
       x2="47.066"
       gradientUnits="userSpaceOnUse"
       y2="15.268"
       id="linearGradient2274">
      <stop
         offset="0"
         style="stop-color:#de9523"
         id="stop4997" />
      <stop
         offset="1"
         style="stop-color:#a36d18"
         id="stop4999" />
    </linearGradient>
    <linearGradient
       x1="25.381"
       y1="24.721"
       gradientTransform="matrix(0.7377,0,0,0.72763,6.6371,13.78)"
       x2="24.119"
       gradientUnits="userSpaceOnUse"
       y2="16.17"
       id="linearGradient2277">
      <stop
         offset="0"
         style="stop-color:#e9b96e"
         id="stop4194" />
      <stop
         offset="1"
         style="stop-color:#f1d19e"
         id="stop4196" />
    </linearGradient>
    <linearGradient
       x1="16.149"
       y1="12.637"
       gradientTransform="matrix(0.7377,0,0,0.76661,6.6371,13.516)"
       x2="34.194"
       gradientUnits="userSpaceOnUse"
       y2="12.637"
       id="linearGradient2280">
      <stop
         offset="0"
         style="stop-color:#a36d18"
         id="stop4184" />
      <stop
         offset="1"
         style="stop-color:#d79020"
         id="stop4186" />
    </linearGradient>
    <linearGradient
       x1="21.907"
       y1="9.7577"
       gradientTransform="matrix(0.7377,0,0,0.7377,6.6371,13.546)"
       x2="22.072"
       gradientUnits="userSpaceOnUse"
       y2="16.021"
       id="linearGradient2282">
      <stop
         offset="0"
         style="stop-color:#a0670c"
         id="stop4989" />
      <stop
         offset="1"
         style="stop-color:#a0670c;stop-opacity:0"
         id="stop4991" />
    </linearGradient>
    <linearGradient
       x1="18.707"
       y1="19.912"
       gradientTransform="matrix(0.7377,0,0,0.7377,6.6371,13.546)"
       x2="30.015"
       gradientUnits="userSpaceOnUse"
       y2="47.388"
       id="linearGradient2285">
      <stop
         offset="0"
         style="stop-color:#ffffff"
         id="stop4224" />
      <stop
         offset="1"
         style="stop-color:#ffffff;stop-opacity:.68639"
         id="stop4226" />
    </linearGradient>
    <linearGradient
       x1="24.99"
       y1="34.005"
       gradientTransform="matrix(0.7377,0,0,0.7377,6.6371,13.546)"
       x2="24.99"
       gradientUnits="userSpaceOnUse"
       y2="22.585"
       id="linearGradient2288">
      <stop
         offset="0"
         style="stop-color:#eaba6f"
         id="stop4212" />
      <stop
         offset="1"
         style="stop-color:#b97a1b"
         id="stop4214" />
    </linearGradient>
    <linearGradient
       x1="13.74"
       y1="-13.9"
       gradientTransform="matrix(0.7377,0,0,0.7377,6.747,13.546)"
       x2="28.921"
       gradientUnits="userSpaceOnUse"
       y2="11.943"
       id="linearGradient3666">
      <stop
         offset="0"
         style="stop-color:#00ff07"
         id="stop3662" />
      <stop
         offset="1"
         style="stop-color:#0d6203"
         id="stop3664" />
    </linearGradient>
  </defs>
  <sodipodi:namedview
     id="base"
     pagecolor="#ffffff"
     bordercolor="#666666"
     borderopacity="1.0"
     inkscape:pageopacity="0.0"
     inkscape:pageshadow="2"
     inkscape:zoom="1"
     inkscape:cx="303.06315"
     inkscape:cy="589.15399"
     inkscape:document-units="mm"
     inkscape:current-layer="layer1"
     showgrid="false"
     inkscape:window-width="1920"
     inkscape:window-height="1016"
     inkscape:window-x="0"
     inkscape:window-y="27"
     inkscape:window-maximized="1" />
  <metadata
     id="metadata5">
    <rdf:RDF>
      <cc:Work
         rdf:about="">
        <dc:format>image/svg+xml</dc:format>
        <dc:type
           rdf:resource="http://purl.org/dc/dcmitype/StillImage" />
        <dc:title></dc:title>
      </cc:Work>
    </rdf:RDF>
  </metadata>
  <g
     inkscape:label="Layer 1"
     inkscape:groupmode="layer"
     id="layer1">
    <rect
       style="opacity:1;fill:#00ffff;fill-opacity:1;stroke:none;stroke-width:2;stroke-linejoin:miter;stroke-miterlimit:4;stroke-dasharray:none;stroke-opacity:1"
       id="rect817"
       width="155.575"
       height="73.289581"
       x="-1.8520833"
       y="96.445831" />
    <rect
       style="opacity:1;fill:#ffffff;fill-opacity:1;stroke:none;stroke-width:1.84362662;stroke-linejoin:miter;stroke-miterlimit:4;stroke-dasharray:none;stroke-opacity:1"
       id="rect815"
       width="71.944633"
       height="26.458332"
       x="50.375301"
       y="119.72916"
       inkscape:export-xdpi="90"
       inkscape:export-ydpi="90" />
    <g
       id="g1052">
      <text
         id="text821"
         y="127.66254"
         x="117.91846"
         style="font-style:normal;font-weight:normal;font-size:5.8195405px;line-height:1.25;font-family:sans-serif;letter-spacing:0px;word-spacing:0px;fill:#000000;fill-opacity:1;stroke:none;stroke-width:0.14548852"
         xml:space="preserve"><tspan
           style="font-style:normal;font-variant:normal;font-weight:800;font-stretch:normal;font-size:5.8195405px;line-height:0px;font-family:AXIS;-inkscape-font-specification:'AXIS, Ultra-Bold';font-variant-ligatures:normal;font-variant-caps:normal;font-variant-numeric:normal;font-feature-settings:normal;text-align:end;writing-mode:lr-tb;text-anchor:end;stroke-width:0.14548852"
           y="127.66254"
           x="117.91846"
           id="tspan819"
           sodipodi:role="line">SCARICA IL</tspan><tspan
           id="tspan823"
           style="font-style:normal;font-variant:normal;font-weight:800;font-stretch:normal;font-size:5.8195405px;line-height:0px;font-family:AXIS;-inkscape-font-specification:'AXIS, Ultra-Bold';font-variant-ligatures:normal;font-variant-caps:normal;font-variant-numeric:normal;font-feature-settings:normal;text-align:end;writing-mode:lr-tb;text-anchor:end;stroke-width:0.14548852"
           y="134.93697"
           x="117.91846"
           sodipodi:role="line">LISTINO</tspan><tspan
           id="tspan825"
           style="font-style:normal;font-variant:normal;font-weight:800;font-stretch:normal;font-size:5.8195405px;line-height:0px;font-family:AXIS;-inkscape-font-specification:'AXIS, Ultra-Bold';font-variant-ligatures:normal;font-variant-caps:normal;font-variant-numeric:normal;font-feature-settings:normal;text-align:end;writing-mode:lr-tb;text-anchor:end;stroke-width:0.14548852"
           y="142.2114"
           x="117.91846"
           sodipodi:role="line">AGGIORNATO</tspan></text>
      <g
         transform="matrix(0.48593312,0,0,0.48593312,51.732878,121.29584)"
         id="layer1-3">
        <g
           id="g6707"
           transform="matrix(0.015532,0,0,0.015394,38.064,39.664)">
          <rect
             id="rect6709"
             style="color:#000000;opacity:0.40206;fill:url(#linearGradient6715)"
             height="478.35999"
             width="1339.6"
             y="-150.7"
             x="-1559.3" />
          <path
             inkscape:connector-curvature="0"
             id="path6711"
             style="color:#000000;opacity:0.40206;fill:url(#radialGradient6717)"
             d="m -219.62,-150.68 v 478.33 c 142.87,0.90045 345.4,-107.17 345.4,-239.2 0,-132.03 -159.44,-239.13 -345.4,-239.13 z" />
          <path
             inkscape:connector-curvature="0"
             id="path6713"
             style="color:#000000;opacity:0.40206;fill:url(#radialGradient6719)"
             d="m -1559.3,-150.68 v 478.33 c -142.87,0.90045 -345.4,-107.17 -345.4,-239.2 0,-132.03 159.44,-239.13 345.4,-239.13 z" />
        </g>
        <rect
           id="rect3115"
           style="color:#000000;display:block;fill:url(#linearGradient2288);stroke:#a0670c;stroke-width:0.73769999"
           rx="1.7883"
           ry="1.7664"
           height="17.049999"
           width="23.59"
           y="24.815001"
           x="12.142" />
        <rect
           id="rect4220"
           style="color:#000000;display:block;opacity:0.48100999;fill:none;stroke:url(#linearGradient2285);stroke-width:0.73769999"
           rx="0.94771999"
           ry="0.94771999"
           height="15.547"
           width="21.987"
           y="25.528999"
           x="12.907" />
        <path
           inkscape:connector-curvature="0"
           id="path4162"
           style="fill:url(#linearGradient2280);fill-rule:evenodd;stroke:url(#linearGradient2282);stroke-width:0.73769999"
           d="m 13.107,25.753 3.7254,-5.0244 13.865,-0.07452 3.8508,4.9969 -21.442,0.10198 z" />
        <path
           inkscape:connector-curvature="0"
           id="path4164"
           style="color:#000000;display:block;fill:url(#linearGradient2277);stroke:#a0670c;stroke-width:0.73769999;stroke-linecap:round;stroke-linejoin:round"
           d="m 34.874,25.59 3.8308,5.3075 H 9.5598 l 3.4407,-5.3112 21.874,0.0036 z" />
        <path
           inkscape:connector-curvature="0"
           id="path4178"
           style="color:#000000;display:block;fill:url(#linearGradient2274);stroke:#a0670c;stroke-width:0.73769999;stroke-linecap:round;stroke-linejoin:round"
           d="m 30.87,20.639 3.4546,5.1066 6.6641,3.2347 -5.9861,-6.5749 z" />
        <path
           inkscape:connector-curvature="0"
           id="path4180"
           style="color:#000000;display:block;fill:#f8e8cf;stroke:#a0670c;stroke-width:0.73769999;stroke-linecap:round;stroke-linejoin:round"
           d="m 16.683,20.713 -2.9329,4.9575 -6.7386,3.2347 5.9861,-6.5749 3.6855,-1.6173 z" />
        <path
           inkscape:connector-curvature="0"
           id="path4954"
           style="color:#000000;display:block;fill:none;stroke:#f4e3ca;stroke-width:0.73769999"
           d="m 33.95,25.671 3.2857,4.4682 h -26.432 l 3.0548,-4.5592 20.092,0.091 z" />
        <path
           inkscape:connector-curvature="0"
           id="path4966"
           style="opacity:0.87975003;fill:none;stroke:url(#linearGradient2269);stroke-width:0.73769999;stroke-linecap:round;stroke-linejoin:round"
           d="m 13.758,25.624 2.4966,-4.263 15.107,-0.05549 2.8342,4.3171 -20.438,0.0014 z" />
        <path
           inkscape:connector-curvature="0"
           id="path2882"
           style="fill:url(#linearGradient3666);stroke:#1b6701;stroke-width:0.73769999"
           d="m 20.456,3.6612 -0.04611,8.7478 h -3.1583 l 6.6854,11.573 6.6854,-11.573 h -3.1352 L 27.44108,3.6612 h -6.9851 z" />
      </g>
    </g>
  </g>
</svg>
